{
    "AWSTemplateFormatVersion": "2010-09-09",
    "Parameters": {
        "MatriculaBT": {
            "Default": "1972",
            "AllowedPattern": "[a-z0-9]*",
            "Type": "String",
            "MinLength": "2",
            "MaxLength": "36"
        },
        "FuncionElb": {
            "Default": "elb",
            "Description": "Nombre del servicio comercial del producto.",
            "Type": "String",
            "MinLength": "2",
            "MaxLength": "60",
            "AllowedPattern": "[a-z0-9]*"
        },
        "Serial": {
            "Default": "20180828A",
            "AllowedPattern": "[0-9][0-9][0-9][0-9][0-9][0-9][0-9][0-9][a-zA-Z]",
            "Type": "String",
            "Description": "Serial de lanzamiento YYYYMMDDX (Ejemplo 20180828A) puede ser otro valor dentro pero se recomienda seguir ejemplo.",
            "MinLength": "9",
            "MaxLength": "9"
        },
        "capaelb": {
            "Default": "front",
            "Type": "String",
            "Description": "CAPA del servicio"
        }
    },
    "Resources": {
        "ELBLISTENER": {
            "Type": "AWS::ElasticLoadBalancingV2::Listener",
            "Properties": {
                "DefaultActions": [
                    {
                        "Type": "forward",
                        "TargetGroupArn": {
                            "Ref": "ELBTARGETGROUP"
                        }
                    }
                ],
                "LoadBalancerArn": {
                    "Ref": "ELBLOADBALANCER"
                },
                "Port": 80,
                "Protocol": "HTTP"
            },
            "Metadata": {
                "AWS::CloudFormation::Designer": {
                    "id": "de3f06bb-d921-49df-a707-e5dcc8880bbc"
                }
            }
        },
        "ELBLOADBALANCER": {
            "Type": "AWS::ElasticLoadBalancingV2::LoadBalancer",
            "Properties": {
                "Name": {
                    "Fn::Join": [
                        "-",
                        [
                            "elb",
                            {
                                "Fn::ImportValue": {
                                    "Fn::Join": [
                                        "-",
                                        [
                                            {
                                                "Ref": "MatriculaBT"
                                            },
                                            "proyecto"
                                        ]
                                    ]
                                }
                            },
                            {
                                "Fn::ImportValue": {
                                    "Fn::Join": [
                                        "-",
                                        [
                                            {
                                                "Ref": "MatriculaBT"
                                            },
                                            "entorno"
                                        ]
                                    ]
                                }
                            },
                            "LBWEB"
                        ]
                    ]
                },
                "Scheme": "internet-facing",
                "SecurityGroups": [
                    {
                        "Fn::ImportValue": {
                            "Fn::Join": [
                                "::",
                                [
                                    {
                                        "Ref": "MatriculaBT"
                                    },
                                    "sgelb"
                                ]
                            ]
                        }
                    }
                ],
                "Subnets": [
                    {
                        "Fn::ImportValue": {
                            "Fn::Join": [
                                "::",
                                [
                                    {
                                        "Ref": "MatriculaBT"
                                    },
                                    "subred1"
                                ]
                            ]
                        }
                    },
                    {
                        "Fn::ImportValue": {
                            "Fn::Join": [
                                "::",
                                [
                                    {
                                        "Ref": "MatriculaBT"
                                    },
                                    "subred2"
                                ]
                            ]
                        }
                    }
                ],
                "Type": "application",
                "Tags": [
                    {
                        "Key": "proyecto",
                        "Value": {
                            "Fn::ImportValue": {
                                "Fn::Join": [
                                    "-",
                                    [
                                        {
                                            "Ref": "MatriculaBT"
                                        },
                                        "proyecto"
                                    ]
                                ]
                            }
                        }
                    },
                    {
                        "Key": "Funcion",
                        "Value": {
                            "Ref": "FuncionElb"
                        }
                    },
                    {
                        "Key": "entorno",
                        "Value": {
                            "Fn::ImportValue": {
                                "Fn::Join": [
                                    "-",
                                    [
                                        {
                                            "Ref": "MatriculaBT"
                                        },
                                        "entorno"
                                    ]
                                ]
                            }
                        }
                    },
                    {
                        "Key": "capa",
                        "Value": {
                            "Ref": "capaelb"
                        }
                    },
                    {
                        "Key": "Financiero",
                        "Value": {
                            "Fn::ImportValue": {
                                "Fn::Join": [
                                    "-",
                                    [
                                        {
                                            "Ref": "MatriculaBT"
                                        },
                                        "Financiero"
                                    ]
                                ]
                            }
                        }
                    },
                    {
                        "Key": "UN",
                        "Value": {
                            "Fn::ImportValue": {
                                "Fn::Join": [
                                    "-",
                                    [
                                        {
                                            "Ref": "MatriculaBT"
                                        },
                                        "UN"
                                    ]
                                ]
                            }
                        }
                    }
                ]
            },
            "Metadata": {
                "AWS::CloudFormation::Designer": {
                    "id": "0b3a263e-5c8c-432e-b5ac-e22b85553c9e"
                }
            }
        },
        "ELBTARGETGROUP": {
            "Type": "AWS::ElasticLoadBalancingV2::TargetGroup",
            "Properties": {
                "HealthCheckIntervalSeconds": 10,
                "HealthCheckPath": "/index.html",
                "HealthCheckPort": 80,
                "HealthCheckProtocol": "HTTP",
                "HealthCheckTimeoutSeconds": 5,
                "HealthyThresholdCount": 5,
                "Name": {
                    "Fn::Join": [
                        "-",
                        [
                            "elb",
                            {
                                "Fn::ImportValue": {
                                    "Fn::Join": [
                                        "-",
                                        [
                                            {
                                                "Ref": "MatriculaBT"
                                            },
                                            "proyecto"
                                        ]
                                    ]
                                }
                            },
                            {
                                "Fn::ImportValue": {
                                    "Fn::Join": [
                                        "-",
                                        [
                                            {
                                                "Ref": "MatriculaBT"
                                            },
                                            "entorno"
                                        ]
                                    ]
                                }
                            },
                            "TargetWeb"
                        ]
                    ]
                },
                "Port": 80,
                "VpcId": {
                    "Fn::ImportValue": {
                        "Fn::Join": [
                            "::",
                            [
                                {
                                    "Ref": "MatriculaBT"
                                },
                                "vpc"
                            ]
                        ]
                    }
                },
                "Protocol": "HTTP",
                "TargetGroupAttributes": [
                    {
                        "Key": "deregistration_delay.timeout_seconds",
                        "Value": 300
                    },
                    {
                        "Key": "stickiness.type",
                        "Value": "lb_cookie"
                    },
                    {
                        "Key": "stickiness.enabled",
                        "Value": "false"
                    },
                    {
                        "Key": "stickiness.lb_cookie.duration_seconds",
                        "Value": "86400"
                    }
                ],
                "Tags": [
                    {
                        "Key": "proyecto",
                        "Value": {
                            "Fn::ImportValue": {
                                "Fn::Join": [
                                    "-",
                                    [
                                        {
                                            "Ref": "MatriculaBT"
                                        },
                                        "proyecto"
                                    ]
                                ]
                            }
                        }
                    },
                    {
                        "Key": "Funcion",
                        "Value": {
                            "Ref": "FuncionElb"
                        }
                    },
                    {
                        "Key": "entorno",
                        "Value": {
                            "Fn::ImportValue": {
                                "Fn::Join": [
                                    "-",
                                    [
                                        {
                                            "Ref": "MatriculaBT"
                                        },
                                        "entorno"
                                    ]
                                ]
                            }
                        }
                    },
                    {
                        "Key": "Financiero",
                        "Value": {
                            "Fn::ImportValue": {
                                "Fn::Join": [
                                    "-",
                                    [
                                        {
                                            "Ref": "MatriculaBT"
                                        },
                                        "Financiero"
                                    ]
                                ]
                            }
                        }
                    },
                    {
                        "Key": "UN",
                        "Value": {
                            "Fn::ImportValue": {
                                "Fn::Join": [
                                    "-",
                                    [
                                        {
                                            "Ref": "MatriculaBT"
                                        },
                                        "UN"
                                    ]
                                ]
                            }
                        }
                    },
                    {
                        "Key": "capa",
                        "Value": {
                            "Ref": "capaelb"
                        }
                    }
                ]
            },
            "Metadata": {
                "AWS::CloudFormation::Designer": {
                    "id": "b6e3a14a-98be-4b31-9516-3b168442568c"
                }
            }
        }
    },
    "Outputs": {
        "elboutput": {
            "Description": "TArget group para el balanceador",
            "Value": {
                "Ref": "ELBTARGETGROUP"
            },
            "Export": {
                "Name": {
                    "Fn::Join": [
                        "::",
                        [
                            {
                                "Ref": "MatriculaBT"
                            },
                            "TargetGroupFullName"
                        ]
                    ]
                }
            }
        },
        "canonicalhostzoneid": {
            "Description": "Canonical Host Zone ID",
            "Value": {
                "Fn::GetAtt": [
                    "ELBLOADBALANCER",
                    "CanonicalHostedZoneID"
                ]
            },
            "Export": {
                "Name": {
                    "Fn::Join": [
                        "::",
                        [
                            {
                                "Ref": "MatriculaBT"
                            },
                            "HostezoneID"
                        ]
                    ]
                }
            }
        },
        "dnsname": {
            "Description": "Canonical Host Zone ID",
            "Value": {
                "Fn::GetAtt": [
                    "ELBLOADBALANCER",
                    "DNSName"
                ]
            },
            "Export": {
                "Name": {
                    "Fn::Join": [
                        "::",
                        [
                            {
                                "Ref": "MatriculaBT"
                            },
                            "elbdnsname"
                        ]
                    ]
                }
            }
        }
    },
    "Metadata": {
        "AWS::CloudFormation::Designer": {
            "b6e3a14a-98be-4b31-9516-3b168442568c": {
                "size": {
                    "width": 60,
                    "height": 60
                },
                "position": {
                    "x": 60,
                    "y": 90
                },
                "z": 1,
                "embeds": []
            },
            "0b3a263e-5c8c-432e-b5ac-e22b85553c9e": {
                "size": {
                    "width": 60,
                    "height": 60
                },
                "position": {
                    "x": 180,
                    "y": 90
                },
                "z": 1,
                "embeds": []
            },
            "de3f06bb-d921-49df-a707-e5dcc8880bbc": {
                "size": {
                    "width": 60,
                    "height": 60
                },
                "position": {
                    "x": 60,
                    "y": 210
                },
                "z": 1,
                "embeds": [],
                "isassociatedwith": [
                    "0b3a263e-5c8c-432e-b5ac-e22b85553c9e"
                ]
            }
        }
    }
}