{
    "AWSTemplateFormatVersion": "2010-09-09",
    "Parameters": {
        "MatriculaBT": {
            "Default": "1972",
            "AllowedPattern": "[a-z0-9]*",
            "Type": "String",
            "MinLength": "2",
            "MaxLength": "36"
        },
        "FuncionCloudfront": {
            "Default": "Frontal",
            "Description": "TAG: Nombre del servicio comercial del producto.",
            "Type": "String",
            "MinLength": "2",
            "MaxLength": "60"
        },
        "aliasesEstaticos": {
            "Default": "estaticos.motor22.com",
            "Description": "Aliases de los estaticos",
            "Type": "String"
        },
        "aliasesmotor22": {
            "Default": "elmotor22.com",
            "Description": "Aliases de los estaticos",
            "Type": "String"
        },
        "Serial": {
            "Default": "20180828A",
            "AllowedPattern": "[0-9][0-9][0-9][0-9][0-9][0-9][0-9][0-9][a-zA-Z]",
            "Type": "String",
            "Description": "Serial de lanzamiento YYYYMMDDX (Ejemplo 20180828A) puede ser otro valor dentro pero se recomienda seguir ejemplo.",
            "MinLength": "9",
            "MaxLength": "9"
        }
    },
    "Resources": {
        "Customautor": {
            "Type": "AWS::CloudFront::Distribution",
            "Properties": {
                "DistributionConfig": {
                    "HttpVersion": "http1.1",
                    "PriceClass": "PriceClass_All",
                    "IPV6Enabled": false,
                    "Enabled": true,
                    "CacheBehaviors": [
                        {
                            "TargetOriginId": {
                                "Fn::Join": [
                                    ".",
                                    [
                                        "idautor",
                                        {
                                            "Fn::ImportValue": {
                                                "Fn::Join": [
                                                    "-",
                                                    [
                                                        {
                                                            "Ref": "MatriculaBT"
                                                        },
                                                        "dominio"
                                                    ]
                                                ]
                                            }
                                        }
                                    ]
                                ]
                            },
                            "DefaultTTL": 600,
                            "PathPattern": "/wp-admin*",
                            "ViewerProtocolPolicy": "allow-all",
                            "MaxTTL": 31536000,
                            "SmoothStreaming": false,
                            "MinTTL": 0,
                            "Compress": false,
                            "AllowedMethods": [
                                "HEAD",
                                "DELETE",
                                "POST",
                                "GET",
                                "OPTIONS",
                                "PUT",
                                "PATCH"
                            ],
                            "CachedMethods": [
                                "HEAD",
                                "GET"
                            ],
                            "ForwardedValues": {
                                "Headers": [
                                    "*"
                                ],
                                "Cookies": {
                                    "Forward": "all"
                                },
                                "QueryString": true
                            }
                        },
                        {
                            "TargetOriginId": {
                                "Fn::Join": [
                                    ".",
                                    [
                                        "idautor",
                                        {
                                            "Fn::ImportValue": {
                                                "Fn::Join": [
                                                    "-",
                                                    [
                                                        {
                                                            "Ref": "MatriculaBT"
                                                        },
                                                        "dominio"
                                                    ]
                                                ]
                                            }
                                        }
                                    ]
                                ]
                            },
                            "DefaultTTL": 600,
                            "PathPattern": "/wp-login*",
                            "ViewerProtocolPolicy": "allow-all",
                            "MaxTTL": 31536000,
                            "SmoothStreaming": false,
                            "MinTTL": 0,
                            "Compress": false,
                            "AllowedMethods": [
                                "HEAD",
                                "DELETE",
                                "POST",
                                "GET",
                                "OPTIONS",
                                "PUT",
                                "PATCH"
                            ],
                            "CachedMethods": [
                                "HEAD",
                                "GET"
                            ],
                            "ForwardedValues": {
                                "Headers": [
                                    "*"
                                ],
                                "Cookies": {
                                    "Forward": "all"
                                },
                                "QueryString": true
                            }
                        },
                        {
                            "TargetOriginId": {
                                "Fn::Join": [
                                    ".",
                                    [
                                        "s3estaticos",
                                        {
                                            "Fn::ImportValue": {
                                                "Fn::Join": [
                                                    "-",
                                                    [
                                                        {
                                                            "Ref": "MatriculaBT"
                                                        },
                                                        "dominio"
                                                    ]
                                                ]
                                            }
                                        }
                                    ]
                                ]
                            },
                            "DefaultTTL": 86400,
                            "PathPattern": "/wp-content/uploads*",
                            "ViewerProtocolPolicy": "allow-all",
                            "MaxTTL": 31536000,
                            "SmoothStreaming": false,
                            "MinTTL": 0,
                            "Compress": false,
                            "AllowedMethods": [
                                "HEAD",
                                "GET"
                            ],
                            "CachedMethods": [
                                "HEAD",
                                "GET"
                            ],
                            "ForwardedValues": {
                                "Cookies": {
                                    "Forward": "none"
                                },
                                "QueryString": false
                            }
                        },
                        {
                            "TargetOriginId": {
                                "Fn::Join": [
                                    ".",
                                    [
                                        "s3domain",
                                        {
                                            "Fn::ImportValue": {
                                                "Fn::Join": [
                                                    "-",
                                                    [
                                                        {
                                                            "Ref": "MatriculaBT"
                                                        },
                                                        "dominio"
                                                    ]
                                                ]
                                            }
                                        }
                                    ]
                                ]
                            },
                            "DefaultTTL": 86400,
                            "PathPattern": "/publi-especial/*",
                            "ViewerProtocolPolicy": "allow-all",
                            "MaxTTL": 31536000,
                            "SmoothStreaming": false,
                            "MinTTL": 0,
                            "Compress": false,
                            "AllowedMethods": [
                                "HEAD",
                                "GET"
                            ],
                            "CachedMethods": [
                                "HEAD",
                                "GET"
                            ],
                            "ForwardedValues": {
                                "Cookies": {
                                    "Forward": "none"
                                },
                                "QueryString": false
                            }
                        }
                    ],
                    "Origins": [
                        {
                            "CustomOriginConfig": {
                                "HTTPSPort": 443,
                                "OriginProtocolPolicy": "http-only",
                                "OriginSSLProtocols": [
                                    "TLSv1",
                                    "TLSv1.1",
                                    "TLSv1.2"
                                ],
                                "HTTPPort": 80
                            },
                            "Id": {
                                "Fn::Join": [
                                    ".",
                                    [
                                        "s3domain",
                                        {
                                            "Fn::ImportValue": {
                                                "Fn::Join": [
                                                    "-",
                                                    [
                                                        {
                                                            "Ref": "MatriculaBT"
                                                        },
                                                        "dominio"
                                                    ]
                                                ]
                                            }
                                        }
                                    ]
                                ]
                            },
                            "DomainName": {
                                "Fn::ImportValue": {
                                    "Fn::Join": [
                                        "::",
                                        [
                                            {
                                                "Ref": "MatriculaBT"
                                            },
                                            "s3domaindominio"
                                        ]
                                    ]
                                }
                            }
                        },
                        {
                            "CustomOriginConfig": {
                                "HTTPSPort": 443,
                                "OriginProtocolPolicy": "http-only",
                                "OriginSSLProtocols": [
                                    "TLSv1",
                                    "TLSv1.1",
                                    "TLSv1.2"
                                ],
                                "HTTPPort": 80
                            },
                            "Id": {
                                "Fn::Join": [
                                    ".",
                                    [
                                        "idautor",
                                        {
                                            "Fn::ImportValue": {
                                                "Fn::Join": [
                                                    "-",
                                                    [
                                                        {
                                                            "Ref": "MatriculaBT"
                                                        },
                                                        "dominio"
                                                    ]
                                                ]
                                            }
                                        }
                                    ]
                                ]
                            },
                            "DomainName": {
                                "Fn::Join": [
                                    ".",
                                    [
                                        "autor",
                                        {
                                            "Fn::ImportValue": {
                                                "Fn::Join": [
                                                    "-",
                                                    [
                                                        {
                                                            "Ref": "MatriculaBT"
                                                        },
                                                        "dominio"
                                                    ]
                                                ]
                                            }
                                        }
                                    ]
                                ]
                            },
                            "OriginPath": ""
                        },
                        {
                            "Id": {
                                "Fn::Join": [
                                    ".",
                                    [
                                        "s3estaticos",
                                        {
                                            "Fn::ImportValue": {
                                                "Fn::Join": [
                                                    "-",
                                                    [
                                                        {
                                                            "Ref": "MatriculaBT"
                                                        },
                                                        "dominio"
                                                    ]
                                                ]
                                            }
                                        }
                                    ]
                                ]
                            },
                            "S3OriginConfig": {
                                "OriginAccessIdentity": ""
                            },
                            "DomainName": {
                                "Fn::ImportValue": {
                                    "Fn::Join": [
                                        "::",
                                        [
                                            {
                                                "Ref": "MatriculaBT"
                                            },
                                            "s3domainestaticos"
                                        ]
                                    ]
                                }
                            }
                        },
                        {
                            "CustomOriginConfig": {
                                "HTTPSPort": 443,
                                "OriginProtocolPolicy": "http-only",
                                "HTTPPort": 80
                            },
                            "Id": {
                                "Fn::Join": [
                                    ".",
                                    [
                                        "idorig",
                                        {
                                            "Fn::ImportValue": {
                                                "Fn::Join": [
                                                    "-",
                                                    [
                                                        {
                                                            "Ref": "MatriculaBT"
                                                        },
                                                        "dominio"
                                                    ]
                                                ]
                                            }
                                        }
                                    ]
                                ]
                            },
                            "DomainName": {
                                "Fn::Join": [
                                    ".",
                                    [
                                        "orig",
                                        {
                                            "Fn::ImportValue": {
                                                "Fn::Join": [
                                                    "-",
                                                    [
                                                        {
                                                            "Ref": "MatriculaBT"
                                                        },
                                                        "dominio"
                                                    ]
                                                ]
                                            }
                                        }
                                    ]
                                ]
                            }
                        }
                    ],
                    "DefaultCacheBehavior": {
                        "TargetOriginId": {
                            "Fn::Join": [
                                ".",
                                [
                                    "idorig",
                                    {
                                        "Fn::ImportValue": {
                                            "Fn::Join": [
                                                "-",
                                                [
                                                    {
                                                        "Ref": "MatriculaBT"
                                                    },
                                                    "dominio"
                                                ]
                                            ]
                                        }
                                    }
                                ]
                            ]
                        },
                        "ForwardedValues": {
                            "Headers": [
                                "Accept",
                                "Accept-Charset",
                                "CloudFront-Is-Desktop-Viewer",
                                "CloudFront-Is-Mobile-Viewer",
                                "CloudFront-Is-Tablet-Viewer",
                                "Host",
                                "Origin",
                                "Referer"
                            ],
                            "Cookies": {
                                "WhitelistedNames": [
                                    "wordpress_*",
                                    "wp-settings-*"
                                ],
                                "Forward": "whitelist"
                            },
                            "QueryString": true
                        },
                        "DefaultTTL": 900,
                        "AllowedMethods": [
                            "HEAD",
                            "DELETE",
                            "POST",
                            "GET",
                            "OPTIONS",
                            "PUT",
                            "PATCH"
                        ],
                        "CachedMethods": [
                            "HEAD",
                            "GET"
                        ],
                        "ViewerProtocolPolicy": "allow-all",
                        "SmoothStreaming": false,
                        "MinTTL": 300,
                        "Compress": false,
                        "MaxTTL": 31536000
                    },
                    "Restrictions": {
                        "GeoRestriction": {
                            "RestrictionType": "none"
                        }
                    },
                    "Aliases": [
                        {
                            "Fn::ImportValue": {
                                "Fn::Join": [
                                    "-",
                                    [
                                        {
                                            "Ref": "MatriculaBT"
                                        },
                                        "dominio"
                                    ]
                                ]
                            }
                        }
                    ]
                },
                "Tags": [
                    {
                        "Key": "proyecto",
                        "Value": {
                            "Fn::ImportValue": {
                                "Fn::Join": [
                                    "-",
                                    [
                                        {
                                            "Ref": "MatriculaBT"
                                        },
                                        "proyecto"
                                    ]
                                ]
                            }
                        }
                    },
                    {
                        "Key": "Funcion",
                        "Value": {
                            "Ref": "FuncionCloudfront"
                        }
                    },
                    {
                        "Key": "entorno",
                        "Value": {
                            "Fn::ImportValue": {
                                "Fn::Join": [
                                    "-",
                                    [
                                        {
                                            "Ref": "MatriculaBT"
                                        },
                                        "entorno"
                                    ]
                                ]
                            }
                        }
                    },
                    {
                        "Key": "Financiero",
                        "Value": {
                            "Fn::ImportValue": {
                                "Fn::Join": [
                                    "-",
                                    [
                                        {
                                            "Ref": "MatriculaBT"
                                        },
                                        "Financiero"
                                    ]
                                ]
                            }
                        }
                    },
                    {
                        "Key": "UN",
                        "Value": {
                            "Fn::ImportValue": {
                                "Fn::Join": [
                                    "-",
                                    [
                                        {
                                            "Ref": "MatriculaBT"
                                        },
                                        "UN"
                                    ]
                                ]
                            }
                        }
                    }
                ]
            }
        },
        "CFestaticoss": {
            "Type": "AWS::CloudFront::Distribution",
            "Properties": {
                "DistributionConfig": {
                    "HttpVersion": "http1.1",
                    "PriceClass": "PriceClass_All",
                    "IPV6Enabled": false,
                    "Enabled": true,
                    "Aliases": [
                        {
                            "Fn::Join": [
                                ".",
                                [
                                    "estaticos",
                                    {
                                        "Fn::ImportValue": {
                                            "Fn::Join": [
                                                "-",
                                                [
                                                    {
                                                        "Ref": "MatriculaBT"
                                                    },
                                                    "dominio"
                                                ]
                                            ]
                                        }
                                    }
                                ]
                            ]
                        }
                    ],
                    "Restrictions": {
                        "GeoRestriction": {
                            "RestrictionType": "none"
                        }
                    },
                    "DefaultCacheBehavior": {
                        "SmoothStreaming": false,
                        "MaxTTL": 31536000,
                        "MinTTL": 0,
                        "TargetOriginId": {
                            "Fn::Join": [
                                ".",
                                [
                                    "s3estaticos",
                                    {
                                        "Fn::ImportValue": {
                                            "Fn::Join": [
                                                "-",
                                                [
                                                    {
                                                        "Ref": "MatriculaBT"
                                                    },
                                                    "dominio"
                                                ]
                                            ]
                                        }
                                    }
                                ]
                            ]
                        },
                        "DefaultTTL": 600,
                        "ViewerProtocolPolicy": "allow-all",
                        "ForwardedValues": {
                            "QueryString": false,
                            "Cookies": {
                                "Forward": "none"
                            }
                        },
                        "Compress": false,
                        "AllowedMethods": [
                            "HEAD",
                            "GET"
                        ],
                        "CachedMethods": [
                            "HEAD",
                            "GET"
                        ]
                    },
                    "Origins": [
                        {
                            "S3OriginConfig": {
                                "OriginAccessIdentity": ""
                            },
                            "Id": {
                                "Fn::Join": [
                                    ".",
                                    [
                                        "s3estaticos",
                                        {
                                            "Fn::ImportValue": {
                                                "Fn::Join": [
                                                    "-",
                                                    [
                                                        {
                                                            "Ref": "MatriculaBT"
                                                        },
                                                        "dominio"
                                                    ]
                                                ]
                                            }
                                        }
                                    ]
                                ]
                            },
                            "DomainName": {
                                "Fn::ImportValue": {
                                    "Fn::Join": [
                                        "::",
                                        [
                                            {
                                                "Ref": "MatriculaBT"
                                            },
                                            "s3domainestaticos"
                                        ]
                                    ]
                                }
                            }
                        }
                    ]
                },
                "Tags": [
                    {
                        "Key": "proyecto",
                        "Value": {
                            "Fn::ImportValue": {
                                "Fn::Join": [
                                    "-",
                                    [
                                        {
                                            "Ref": "MatriculaBT"
                                        },
                                        "proyecto"
                                    ]
                                ]
                            }
                        }
                    },
                    {
                        "Key": "Funcion",
                        "Value": {
                            "Ref": "FuncionCloudfront"
                        }
                    },
                    {
                        "Key": "entorno",
                        "Value": {
                            "Fn::ImportValue": {
                                "Fn::Join": [
                                    "-",
                                    [
                                        {
                                            "Ref": "MatriculaBT"
                                        },
                                        "entorno"
                                    ]
                                ]
                            }
                        }
                    },
                    {
                        "Key": "Financiero",
                        "Value": {
                            "Fn::ImportValue": {
                                "Fn::Join": [
                                    "-",
                                    [
                                        {
                                            "Ref": "MatriculaBT"
                                        },
                                        "Financiero"
                                    ]
                                ]
                            }
                        }
                    },
                    {
                        "Key": "UN",
                        "Value": {
                            "Fn::ImportValue": {
                                "Fn::Join": [
                                    "-",
                                    [
                                        {
                                            "Ref": "MatriculaBT"
                                        },
                                        "UN"
                                    ]
                                ]
                            }
                        }
                    }
                ]
            }
        }
    },
    "Outputs": {
        "CloudfrontEndpointEstaticos": {
            "Value": {
                "Fn::GetAtt": [
                    "CFestaticoss",
                    "DomainName"
                ]
            },
            "Export": {
                "Name": {
                    "Fn::Join": [
                        "::",
                        [
                            {
                                "Ref": "MatriculaBT"
                            },
                            "cloudfrontestaticos"
                        ]
                    ]
                }
            }
        },
        "CloudfrontEndpointCustomautor": {
            "Value": {
                "Fn::GetAtt": [
                    "Customautor",
                    "DomainName"
                ]
            },
            "Export": {
                "Name": {
                    "Fn::Join": [
                        "::",
                        [
                            {
                                "Ref": "MatriculaBT"
                            },
                            "cloudfrontCustomautor"
                        ]
                    ]
                }
            }
        }
    }
}